<?xml version="1.0" standalone="no"?>
<!DOCTYPE svg PUBLIC "-//W3C//DTD SVG 20010904//EN"
 "http://www.w3.org/TR/2001/REC-SVG-20010904/DTD/svg10.dtd">
<svg version="1.0" xmlns="http://www.w3.org/2000/svg"
 width="1000.000000pt" height="1000.000000pt" viewBox="0 0 1000.000000 1000.000000"
 preserveAspectRatio="xMidYMid meet">
<metadata>
Created by potrace 1.13, written by Peter Selinger 2001-2015
</metadata>
<g transform="translate(0.000000,1000.000000) scale(0.100000,-0.100000)"
fill="#ffffff" stroke="none">
<path d="M7385 8930 l-320 -320 600 -600 c330 -330 603 -600 607 -600 7 0 598
587 625 621 10 13 -86 113 -590 617 l-602 602 -320 -320z"/>
<path d="M4290 5815 l-2595 -2595 598 -597 597 -598 2597 2597 2598 2598 -595
595 c-327 327 -597 595 -600 595 -3 0 -1173 -1168 -2600 -2595z m2918 1038
l-258 -258 -165 165 c-91 91 -165 169 -165 175 0 5 114 124 252 262 l253 253
170 -170 170 -170 -257 -257z m-721 -721 c-136 -136 -247 -252 -247 -257 0 -6
-480 -490 -1068 -1078 l-1067 -1067 -175 175 -175 175 1320 1320 1320 1320
170 -170 170 -170 -248 -248z"/>
<path d="M7621 6410 l-242 -243 96 -96 96 -95 -1428 -1428 -1428 -1428 175
-175 175 -175 1670 1670 1670 1670 -271 271 -271 271 -242 -242z"/>
<path d="M1387 2673 c-65 -197 -166 -506 -226 -688 l-109 -330 127 -128 126
-127 100 31 c55 17 197 61 315 99 118 37 269 85 335 105 66 20 197 61 290 90
94 29 211 65 260 80 50 15 92 29 95 32 4 4 -1181 1193 -1191 1193 -3 0 -58
-161 -122 -357z"/>
<path d="M988 1460 c-34 -104 -33 -120 5 -144 12 -8 42 -2 117 22 55 19 100
36 100 40 0 9 -173 182 -182 182 -4 0 -21 -45 -40 -100z"/>
</g>
</svg>
